{
  "keys": [
    {"e":"AQAB","kty":"RSA","n":"sF5qzYDfdHO12rrkPvm2dz1cTIb7ibKPs-mLjx1qJp4WCm-a6gCT3Q1N7VUdQ-_HuD2NJZ-XFfszmtNHjU0AQ_pS14NHnSgw3-D37nuVqmvUh_knPoH6Y2XcS_gBU8_76WXC1_OUuXvTtTiR5Qu0aqTvyaVIsdCPdxsNyxaM9y_zosaO1FCz9hQnULc3QuRgLOBDmEpxKHBtLNKjpNbTDsJgf66JfIwcgcD4txKvSdJ89NVWmUVfssUUs7vFyiibqXRfUJ062_IUX6YhR0dK8jg9d8ab4p7wxQqmAylY-YmNKVgXFmeReQ9KtswCxypIOP8CoucQIKuCwYY-B736rw"}
  ]
}